FL_data_analyzing
…
## Rows: 50176 Columns: 12

## -- Column specification --------------------------------------------------------
## Delimiter: ","
## chr (3): State, County, Urban/Rural Category
## dbl (9): FIPS, Year, FIPS State, Population, Model-based Death Rate, Standar...

## 
## i Use `spec()` to retrieve the full column specification for this data.
## i Specify the column types or set `show_col_types = FALSE` to quiet this message.

## # A tibble: 268 x 4
##    county  year  population death_rate
##    <chr>   <fct>      <dbl>      <dbl>
##  1 alachua 2015      259177       12.1
##  2 alachua 2016      264287       13.5
##  3 alachua 2017      266820       12.9
##  4 alachua 2018      269956       11.7
##  5 baker   2015       27351       21.9
##  6 baker   2016       27872       21.7
##  7 baker   2017       28230       24.2
##  8 baker   2018       28355       23.0
##  9 bay     2015      181387       17.6
## 10 bay     2016      183384       24.5
## # ... with 258 more rows
…
## Rows: 50176 Columns: 12

## -- Column specification --------------------------------------------------------
## Delimiter: ","
## chr (3): State, County, Urban/Rural Category
## dbl (9): FIPS, Year, FIPS State, Population, Model-based Death Rate, Standar...

## 
## i Use `spec()` to retrieve the full column specification for this data.
## i Specify the column types or set `show_col_types = FALSE` to quiet this message.

## # A tibble: 232 x 4
##    county  year  population death_rate
##    <chr>   <fct>      <dbl>      <dbl>
##  1 alameda 2015     1634634      12.3 
##  2 alameda 2016     1650306      10.5 
##  3 alameda 2017     1658131       8.79
##  4 alameda 2018     1666753      12.0 
##  5 alpine  2015        1087      22.1 
##  6 alpine  2016        1057      24.8 
##  7 alpine  2017        1121      26.5 
##  8 alpine  2018        1101      26.6 
##  9 amador  2015       37037      23.1 
## 10 amador  2016       37438      25.3 
## # ... with 222 more rows

## # A tibble: 58 x 2
##     fips county      
##    <int> <chr>       
##  1  6001 alameda     
##  2  6003 alpine      
##  3  6005 amador      
##  4  6007 butte       
##  5  6009 calaveras   
##  6  6011 colusa      
##  7  6013 contra costa
##  8  6015 del norte   
##  9  6017 el dorado   
## 10  6019 fresno      
## # ... with 48 more rows
…
