NY_data_analyzing
…
# Missing data of death counts for specific drug types in year 2016, 2017
# Percent with drugs specified  for each month from 2015-2021 are high enough, all above 98%

Number of Drug Overdose Deaths by Drug Categories in NYC

nyc_df %>% 
  ungroup() %>% 
  filter(year %in% c("2016","2017")) %>% 
  select(year, month, indicator, data_value, predicted_value)

## # A tibble: 288 × 5
##    year  month   indicator                            data_value predicted_value
##    <fct> <fct>   <chr>                                     <dbl>           <dbl>
##  1 2016  January Natural & semi-synthetic opioids (T…         NA              NA
##  2 2016  January Natural, semi-synthetic, & syntheti…         NA              NA
##  3 2016  January Number of Drug Overdose Deaths             1118            1118
##  4 2016  January Number of Deaths                          53516              NA
##  5 2016  January Cocaine (T40.5)                              NA              NA
##  6 2016  January Methadone (T40.3)                            NA              NA
##  7 2016  January Natural & semi-synthetic opioids, i…         NA              NA
##  8 2016  January Psychostimulants with abuse potenti…         NA              NA
##  9 2016  January Synthetic opioids, excl. methadone …         NA              NA
## 10 2016  January Heroin (T40.1)                               NA              NA
## # … with 278 more rows
…
  read_csv("./data/NCHS_-_Drug_Poisoning_Mortality_by_County__United_States.csv") %>% 
  janitor::clean_names() %>% 
  filter(state %in% "New York") %>% 
  select(year, county, population, model_based_death_rate) %>% 
  rename(death_rate = model_based_death_rate) %>% 
  mutate(
    county = str_replace(county, "County, NY", "")) %>% 
  mutate(year = factor(year),
         county = str_to_lower(county)) %>% 
  filter(str_detect(county, "bronx|queens|kings|new york|richmond")) %>% 
  mutate(county = str_replace(county, " $", "")) %>% 
  relocate(county)
ny_county_df

## # A tibble: 80 × 4
##    county year  population death_rate
##    <chr>  <fct>      <dbl>      <dbl>
##  1 bronx  2003     1362373      10.2 
##  2 bronx  2004     1358963       9.94
##  3 bronx  2005     1351736      10.7 
##  4 bronx  2006     1348164      13.6 
##  5 bronx  2007     1354056      12.4 
##  6 bronx  2008     1363488      10.2 
##  7 bronx  2009     1376261      10.0 
##  8 bronx  2010     1384603       8.69
##  9 bronx  2011     1397366      10.0 
## 10 bronx  2012     1411715      11.8 
## # … with 70 more rows
…
