Ohio_data_analyzing
…
CA Drug Map

oh_county_df = 
  read_csv("./data/NCHS_-_Drug_Poisoning_Mortality_by_County__United_States.csv") %>% 
  janitor::clean_names() %>% 
  filter(state %in% "Ohio") %>% 
  select(year, county, population, death_rate = model_based_death_rate) %>% 
  separate(county, into = c("county", "useless"), sep = " County") %>% 
  select(-useless) %>% 
  mutate(year = factor(year),
         county = str_to_lower(county)) %>% 
  relocate(county)
oh_county_df

## # A tibble: 1,408 × 4
##    county year  population death_rate
##    <chr>  <fct>      <dbl>      <dbl>
##  1 adams  2003       28111       17.1
##  2 adams  2004       28328       18.0
##  3 adams  2005       28522       21.3
##  4 adams  2006       28615       23.0
##  5 adams  2007       28538       22.8
##  6 adams  2008       28686       25.2
##  7 adams  2009       28500       26.4
##  8 adams  2010       28559       25.2
##  9 adams  2011       28473       26.2
## 10 adams  2012       28309       29.3
## # … with 1,398 more rows
…
