usa_map.knit
…
## Rows: 42180 Columns: 12

## -- Column specification --------------------------------------------------------
## Delimiter: ","
## chr (8): State, Month, Period, Indicator, Percent Complete, State Name, Foot...
## dbl (4): Year, Data Value, Percent Pending Investigation, Predicted Value

## 
## i Use `spec()` to retrieve the full column specification for this data.
## i Specify the column types or set `show_col_types = FALSE` to quiet this message.

mine_df

## # A tibble: 3,876 x 6
##     year state_name indicator        deaths state hover               
##    <dbl> <chr>      <chr>             <dbl> <chr> <chr>               
##  1  2015 Alaska     Number of Deaths   4133 AK    "Alaska\nDeath:4133"
##  2  2015 Alaska     Number of Deaths   4222 AK    "Alaska\nDeath:4222"
##  3  2015 Alaska     Number of Deaths   4193 AK    "Alaska\nDeath:4193"
##  4  2015 Alaska     Number of Deaths   4084 AK    "Alaska\nDeath:4084"
##  5  2015 Alaska     Number of Deaths   4034 AK    "Alaska\nDeath:4034"
##  6  2015 Alaska     Number of Deaths   4220 AK    "Alaska\nDeath:4220"
##  7  2015 Alaska     Number of Deaths   4201 AK    "Alaska\nDeath:4201"
##  8  2015 Alaska     Number of Deaths   4101 AK    "Alaska\nDeath:4101"
##  9  2015 Alaska     Number of Deaths   4196 AK    "Alaska\nDeath:4196"
## 10  2015 Alaska     Number of Deaths   4219 AK    "Alaska\nDeath:4219"
## # ... with 3,866 more rows
…
